Data Science for Dummies
…
Key Point #6: Making a model is not enough. You have to evalaute the linear regression model for constant variance, and residuals centered around 0. 

A residual is the difference between what our model expects for a value (in this case, overtime). For our linear model to be good, residuals should be centered around 0, because we want, on average, for the difference between what our model expects and what our model observes to be 0. We also need to examine the constant variance assumption, which is that the residuals are randomly dispersed and do not depend on the fitted value. In this case, the residuals are not only NOT centered at zero, taking a look at how the median and spread of the individual boxplots are different from one another, it is safe to say that a linear model that only looks at department is not adequate for explaining our data.

This indicates we should either change our data or change our model. Lets try changing our data. We know that department seems to indicate total compensation, but back in Plot B, we saw that department compensation actually seemed to differ based on year. Lets add year back in and see what happens. Furthermore, your job within a department (supervisor vs intern) will also influence your compensation. Adding these additional factors in, we get the following residual plot.

first_lm2 <- lm(totalComp ~ year + dept + job, first)
tidy(first_lm2)

## # A tibble: 200 x 5
##    term                          estimate std.error statistic p.value
##    <chr>                            <dbl>     <dbl>     <dbl>   <dbl>
##  1 (Intercept)                  -4901104.  1813474.    -2.70  0.00694
##  2 year                             2476.      900.     2.75  0.00600
##  3 deptCRT Superior Court         -67701.    59509.    -1.14  0.255  
##  4 deptDAT District Attorney       48111.    25230.     1.91  0.0567 
##  5 deptDEM Emergency Management    25186.    23066.     1.09  0.275  
##  6 deptFIR Fire Department         41137.    28890.     1.42  0.155  
##  7 deptJUV Juvenile Probation      11615.    14826.     0.783 0.434  
##  8 deptPDR Public Defender         64935.    24936.     2.60  0.00928
##  9 deptPOL Police                  38167.    19175.     1.99  0.0467 
## 10 deptSHF Sheriff                 42751.    25814.     1.66  0.0979 
## #  with 190 more rows
…
Take a look at the Pr(>F) column. The fact that this probability is so miniscule indicates that we can reject the null that our two models are the same and conclude that the second model is superior to the first.

Now lets try to generalize our findings to the whole sample as opposed to just samples from the very first organization.

sample_lm <- lm(totalComp ~ year+dept+job, sample)
tidy(sample_lm)

## # A tibble: 866 x 5
##    term                            estimate std.error statistic     p.value
##    <chr>                              <dbl>     <dbl>     <dbl>       <dbl>
##  1 (Intercept)                    -3696478.   666627.   -5.55       3.02e-8
##  2 year                               1868.      331.    5.65       1.69e-8
##  3 deptADM Gen Svcs Agency-City     -3658.    13501.   -0.271      7.86e-1
##  4 deptADP Adult Probation          -18290.    16651.   -1.10       2.72e-1
##  5 deptAIR Airport Commission         4108.    13246.    0.310      7.56e-1
##  6 deptART Arts Commission            1610.    22726.    0.0708     9.44e-1
##  7 deptASR Assessor / Recorder      -16966.    19025.   -0.892      3.73e-1
##  8 deptBOA Board Of Appeals - PAB     -747.    25423.   -0.0294     9.77e-1
##  9 deptBOS Board Of Supervisors       8184.    17649.    0.464      6.43e-1
## 10 deptCAT City Attorney             10683.    16133.    0.662      5.08e-1
## #  with 856 more rows
…
sample %>%
    group_by(dept) %>%
    summarise(avg = mean(totalComp)) %>%
    arrange(desc(avg)) %>%
    rename("Total Compensation by Department" = avg)

## # A tibble: 55 x 2
##    dept                           `Total Compensation by Department`
##    <chr>                                                       <dbl>
##  1 FIR Fire Department                                       177181.
##  2 CAT City Attorney                                         169329.
##  3 DAT District Attorney                                     143991.
##  4 POL Police                                                139746.
##  5 PDR Public Defender                                       139637.
##  6 SHF Sheriff                                               138894.
##  7 DEM Emergency Management                                  133586.
##  8 PRT Port                                                  124835.
##  9 MYR Mayor                                                 120494.
## 10 CFC Children & Families Commsn                            113602.
## #  with 45 more rows

sample %>%
    group_by(dept) %>%
    summarise(avg = mean(baseSalary)) %>%
    arrange(desc(avg)) %>%
    rename("Base Salary by Department" = avg)

## # A tibble: 55 x 2
##    dept                           `Base Salary by Department`
##    <chr>                                                <dbl>
##  1 CAT City Attorney                                  122812.
##  2 DAT District Attorney                              103717.
##  3 FIR Fire Department                                101426.
##  4 PDR Public Defender                                 99857.
##  5 POL Police                                          89672.
##  6 PRT Port                                            88333.
##  7 MYR Mayor                                           83611.
##  8 SHF Sheriff                                         82433.
##  9 DEM Emergency Management                            80844.
## 10 CFC Children & Families Commsn                      80380.
## #  with 45 more rows

sample %>%
    group_by(dept) %>%
    summarise(avg = mean(overtime)) %>%
    arrange(desc(avg)) %>%
    rename("Overtime by Department" = avg)

## # A tibble: 55 x 2
##    dept                           `Overtime by Department`
##    <chr>                                             <dbl>
##  1 FIR Fire Department                              25484.
##  2 SHF Sheriff                                      12747.
##  3 DEM Emergency Management                         10837.
##  4 POL Police                                       10266.
##  5 MTA Municipal Transprtn Agncy                     9501.
##  6 DT GSA - Technology                               4746.
##  7 HHP Hetch Hetchy Water & Power                    4060.
##  8 JUV Juvenile Probation                            4047.
##  9 WTR Water Enterprise                              4046.
## 10 FAM Fine Arts Museum                              3561.
## #  with 45 more rows

sample %>%
    group_by(dept) %>%
    summarise(avg = mean(health)) %>%
    arrange(desc(avg)) %>%
    rename("Health & Dental Benefits by Department" = avg)

## # A tibble: 55 x 2
##    dept                           `Health & Dental Benefits by Department`
##    <chr>                                                             <dbl>
##  1 FIR Fire Department                                              12870.
##  2 CAT City Attorney                                                11316.
##  3 CSS Child Support Services                                       11306.
##  4 PDR Public Defender                                              11147.
##  5 SHF Sheriff                                                      11111.
##  6 PRT Port                                                         10706.
##  7 MYR Mayor                                                        10525.
##  8 CRT Superior Court                                               10444.
##  9 DEM Emergency Management                                         10405.
## 10 CFC Children & Families Commsn                                   10276.
## #  with 45 more rows

sample %>%
    group_by(dept) %>%
    summarise(avg = mean(retirement)) %>%
    arrange(desc(avg)) %>%
    rename("Retirement Benefits by Department" = avg)

## # A tibble: 55 x 2
##    dept                           `Retirement Benefits by Department`
##    <chr>                                                        <dbl>
##  1 CAT City Attorney                                           24079.
##  2 FIR Fire Department                                         21119.
##  3 DAT District Attorney                                       20369.
##  4 SHF Sheriff                                                 20336.
##  5 PDR Public Defender                                         19422.
##  6 POL Police                                                  17306.
##  7 PRT Port                                                    16939.
##  8 DEM Emergency Management                                    16572.
##  9 MYR Mayor                                                   16179.
## 10 ECN Economic & Wrkfrce Dvlpmnt                              15326.
## #  with 45 more rows

sample %>%
    group_by(dept) %>%
    summarise(avg = mean(totalBenefits)) %>%
    arrange(desc(avg)) %>%
    rename("Total Benefits by Department" = avg)

## # A tibble: 55 x 2
##    dept                           `Total Benefits by Department`
##    <chr>                                                   <dbl>
##  1 CAT City Attorney                                      44000.
##  2 PDR Public Defender                                    37943.
##  3 DAT District Attorney                                  37762.
##  4 FIR Fire Department                                    36666.
##  5 MYR Mayor                                              36357.
##  6 DEM Emergency Management                               35130.
##  7 PRT Port                                               35078.
##  8 SHF Sheriff                                            34044.
##  9 CFC Children & Families Commsn                         33223.
## 10 ECN Economic & Wrkfrce Dvlpmnt                         32955.
## #  with 45 more rows
…
